{
  "kind": "collectionType",
  "collectionName": "planetes",
  "info": {
    "singularName": "planete",
    "pluralName": "planetes",
    "displayName": "Planete",
    "description": ""
  },
  "options": {
    "draftAndPublish": true
  },
  "pluginOptions": {},
  "attributes": {
    "Titre": {
      "type": "string"
    },
    "Contenu": {
      "type": "richtext"
    },
    "Image": {
      "type": "media",
      "multiple": false,
      "required": false,
      "allowedTypes": [
        "images",
        "files",
        "videos",
        "audios"
      ]
    },
    "sections": {
      "type": "relation",
      "relation": "oneToMany",
      "target": "api::section.section"
    },
    "colorpicker": {
      "type": "customField",
      "regex": "^#([A-Fa-f0-9]{6}|[A-Fa-f0-9]{3})$",
      "customField": "plugin::color-picker.color"
    },
    "zone_dynamic": {
      "type": "dynamiczone",
      "components": [
        "ma-categorie.composant",
        "ma-categorie.composant-2",
        "ma-categorie.titre-quizz"
      ]
    }
  }
}
