{
  "kind": "collectionType",
  "collectionName": "sections",
  "info": {
    "singularName": "section",
    "pluralName": "sections",
    "displayName": "Section",
    "description": ""
  },
  "options": {
    "draftAndPublish": true
  },
  "pluginOptions": {},
  "attributes": {
    "title": {
      "type": "string"
    },
    "content": {
      "type": "text"
    },
    "image": {
      "type": "media",
      "multiple": false,
      "required": false,
      "allowedTypes": [
        "images",
        "files",
        "videos",
        "audios"
      ]
    },
    "writer": {
      "type": "relation",
      "relation": "oneToOne",
      "target": "api::writer.writer"
    }
  }
}
